help me{
    "response": {
        "status": "ok",
        "userTier": "developer",
        "total": 20235,
        "startIndex": 1,
        "pageSize": 10,
        "currentPage": 1,
        "pages": 2024,
        "orderBy": "relevance",
        "results": [
            {
                "id": "lifeandstyle/2017/oct/22/piecaramba-winchester-bloody-good-pie-shop-restaurant-review-jay-rayner",
                "type": "article",
                "sectionId": "lifeandstyle",
                "sectionName": "Life and style",
                "webPublicationDate": "2017-10-22T05:00:43Z",
                "webTitle": "Piecaramba!: ‘A  bloody good pie shop’ – restaurant review | Jay Rayner",
                "webUrl": "https://www.theguardian.com/lifeandstyle/2017/oct/22/piecaramba-winchester-bloody-good-pie-shop-restaurant-review-jay-rayner",
                "apiUrl": "https://content.guardianapis.com/lifeandstyle/2017/oct/22/piecaramba-winchester-bloody-good-pie-shop-restaurant-review-jay-rayner",
                "isHosted": false,
                "pillarId": "pillar/lifestyle",
                "pillarName": "Lifestyle"
            },
            {
                "id": "lifeandstyle/2017/nov/05/fishers-in-the-city-edinburgh-it-needs-a-friendly-whack-restaurant-review",
                "type": "article",
                "sectionId": "lifeandstyle",
                "sectionName": "Life and style",
                "webPublicationDate": "2017-11-05T06:00:10Z",
                "webTitle": "Fishers in the City, Edinburgh: ‘It needs a friendly whack’ – restaurant review | Jay Rayner",
                "webUrl": "https://www.theguardian.com/lifeandstyle/2017/nov/05/fishers-in-the-city-edinburgh-it-needs-a-friendly-whack-restaurant-review",
                "apiUrl": "https://content.guardianapis.com/lifeandstyle/2017/nov/05/fishers-in-the-city-edinburgh-it-needs-a-friendly-whack-restaurant-review",
                "isHosted": false,
                "pillarId": "pillar/lifestyle",
                "pillarName": "Lifestyle"
            },
            {
                "id": "lifeandstyle/2017/oct/15/salt-stratford-upon-avon-restaurant-review-jay-rayner",
                "type": "article",
                "sectionId": "lifeandstyle",
                "sectionName": "Life and style",
                "webPublicationDate": "2017-10-15T05:00:21Z",
                "webTitle": "Salt, Stratford-upon-Avon: ‘I want this restaurant to be great’ | Jay Rayner",
                "webUrl": "https://www.theguardian.com/lifeandstyle/2017/oct/15/salt-stratford-upon-avon-restaurant-review-jay-rayner",
                "apiUrl": "https://content.guardianapis.com/lifeandstyle/2017/oct/15/salt-stratford-upon-avon-restaurant-review-jay-rayner",
                "isHosted": false,
                "pillarId": "pillar/lifestyle",
                "pillarName": "Lifestyle"
            },
            {
                "id": "lifeandstyle/2017/may/18/10-questions-for-the-worlds-most-feared-restaurant-critic-jay-rayner",
                "type": "article",
                "sectionId": "lifeandstyle",
                "sectionName": "Life and style",
                "webPublicationDate": "2017-05-18T01:44:58Z",
                "webTitle": "10 questions for the 'world's most feared' restaurant critic Jay Rayner | Lucy Clark",
                "webUrl": "https://www.theguardian.com/lifeandstyle/2017/may/18/10-questions-for-the-worlds-most-feared-restaurant-critic-jay-rayner",
                "apiUrl": "https://content.guardianapis.com/lifeandstyle/2017/may/18/10-questions-for-the-worlds-most-feared-restaurant-critic-jay-rayner",
                "isHosted": false,
                "pillarId": "pillar/lifestyle",
                "pillarName": "Lifestyle"
            },
            {
                "id": "lifeandstyle/2017/oct/08/angkor-soul-stockport-restaurant-review-jay-rayner",
                "type": "article",
                "sectionId": "lifeandstyle",
                "sectionName": "Life and style",
                "webPublicationDate": "2017-10-08T05:00:42Z",
                "webTitle": "Angkor Soul, Stockport: ‘It lives up to its name' | Jay Rayner",
                "webUrl": "https://www.theguardian.com/lifeandstyle/2017/oct/08/angkor-soul-stockport-restaurant-review-jay-rayner",
                "apiUrl": "https://content.guardianapis.com/lifeandstyle/2017/oct/08/angkor-soul-stockport-restaurant-review-jay-rayner",
                "isHosted": false,
                "pillarId": "pillar/lifestyle",
                "pillarName": "Lifestyle"
            },
            {
                "id": "lifeandstyle/2017/may/28/the-test-kitchen-london-restaurant-review-jay-rayner",
                "type": "article",
                "sectionId": "lifeandstyle",
                "sectionName": "Life and style",
                "webPublicationDate": "2017-05-28T05:00:01Z",
                "webTitle": "The Test Kitchen, London - restaurant review | Jay Rayner",
                "webUrl": "https://www.theguardian.com/lifeandstyle/2017/may/28/the-test-kitchen-london-restaurant-review-jay-rayner",
                "apiUrl": "https://content.guardianapis.com/lifeandstyle/2017/may/28/the-test-kitchen-london-restaurant-review-jay-rayner",
                "isHosted": false,
                "pillarId": "pillar/lifestyle",
                "pillarName": "Lifestyle"
            },
            {
                "id": "lifeandstyle/2017/may/21/plot-london-restaurant-review-jay-rayner",
                "type": "article",
                "sectionId": "lifeandstyle",
                "sectionName": "Life and style",
                "webPublicationDate": "2017-05-21T05:00:45Z",
                "webTitle": "Plot, London: restaurant review | Jay Rayner",
                "webUrl": "https://www.theguardian.com/lifeandstyle/2017/may/21/plot-london-restaurant-review-jay-rayner",
                "apiUrl": "https://content.guardianapis.com/lifeandstyle/2017/may/21/plot-london-restaurant-review-jay-rayner",
                "isHosted": false,
                "pillarId": "pillar/lifestyle",
                "pillarName": "Lifestyle"
            },
            {
                "id": "global/2017/jul/24/kenneth-jay-lane-obituary",
                "type": "article",
                "sectionId": "fashion",
                "sectionName": "Fashion",
                "webPublicationDate": "2017-07-24T15:24:03Z",
                "webTitle": "Kenneth Jay Lane obituary",
                "webUrl": "https://www.theguardian.com/global/2017/jul/24/kenneth-jay-lane-obituary",
                "apiUrl": "https://content.guardianapis.com/global/2017/jul/24/kenneth-jay-lane-obituary",
                "isHosted": false,
                "pillarId": "pillar/lifestyle",
                "pillarName": "Lifestyle"
            },
            {
                "id": "lifeandstyle/2017/may/14/radici-london-restaurant-review-jay-rayner",
                "type": "article",
                "sectionId": "lifeandstyle",
                "sectionName": "Life and style",
                "webPublicationDate": "2017-05-14T05:00:07Z",
                "webTitle": "Radici, London: restaurant review | Jay Rayner",
                "webUrl": "https://www.theguardian.com/lifeandstyle/2017/may/14/radici-london-restaurant-review-jay-rayner",
                "apiUrl": "https://content.guardianapis.com/lifeandstyle/2017/may/14/radici-london-restaurant-review-jay-rayner",
                "isHosted": false,
                "pillarId": "pillar/lifestyle",
                "pillarName": "Lifestyle"
            },
            {
                "id": "lifeandstyle/2017/apr/23/claude-bosi-at-bibendum-london-restaurant-review-jay-rayner",
                "type": "article",
                "sectionId": "lifeandstyle",
                "sectionName": "Life and style",
                "webPublicationDate": "2017-04-23T05:00:04Z",
                "webTitle": "Claude Bosi at Bibendum: restaurant review | Jay Rayner",
                "webUrl": "https://www.theguardian.com/lifeandstyle/2017/apr/23/claude-bosi-at-bibendum-london-restaurant-review-jay-rayner",
                "apiUrl": "https://content.guardianapis.com/lifeandstyle/2017/apr/23/claude-bosi-at-bibendum-london-restaurant-review-jay-rayner",
                "isHosted": false,
                "pillarId": "pillar/lifestyle",
                "pillarName": "Lifestyle"
            }
        ]
    }
}